%!PS-Adobe-3.0 EPSF-3.0
%%BoundingBox: 26 692 515 759
%%Title: din2square2
%%CreationDate: Sun Mar 14 13:13:35 2010
%%Creator: Tgif-4.1.45-QPL written by William Chia-Wei Cheng (bill.cheng@acm.org)
%%ProducedBy: (unknown)
%%Pages: 1
%%DocumentFonts: (atend)
%%EndComments
%%BeginProlog

/tgifdict 51 dict def
tgifdict begin

/TGMAX
 { exch dup 3 1 roll exch dup 3 1 roll gt { pop } { exch pop } ifelse
 } def
/TGMIN
 { exch dup 3 1 roll exch dup 3 1 roll lt { pop } { exch pop } ifelse
 } def
/TGSW { stringwidth pop } def

/bd { bind def } bind def

/GS { gsave } bd
/GR { grestore } bd
/NP { newpath } bd
/CP { closepath } bd
/CHP { charpath } bd
/CT { curveto } bd
/L { lineto } bd
/RL { rlineto } bd
/M { moveto } bd
/RM { rmoveto } bd
/S { stroke } bd
/F { fill } bd
/TR { translate } bd
/RO { rotate } bd
/SC { scale } bd
/MU { mul } bd
/DI { div } bd
/DU { dup } bd
/NE { neg } bd
/AD { add } bd
/SU { sub } bd
/PO { pop } bd
/EX { exch } bd
/CO { concat } bd
/CL { clip } bd
/EC { eoclip } bd
/EF { eofill } bd
/IM { image } bd
/IMM { imagemask } bd
/ARY { array } bd
/SG { setgray } bd
/RG { setrgbcolor } bd
/SD { setdash } bd
/W { setlinewidth } bd
/SM { setmiterlimit } bd
/SLC { setlinecap } bd
/SLJ { setlinejoin } bd
/SH { show } bd
/FF { findfont } bd
/MS { makefont setfont } bd
/AR { arcto 4 {pop} repeat } bd
/CURP { currentpoint } bd
/FLAT { flattenpath strokepath clip newpath } bd
/TGSM { tgiforigctm setmatrix } def
/TGRM { savematrix setmatrix } def

end

%%EndProlog
%%Page: 1 1

%%PageBoundingBox: 26 692 515 759
tgifdict begin
/tgifsavedpage save def

1 SM
1 W

0 SG

72 0 MU 72 11.602 MU TR
72 128 DI 100.000 MU 100 DI DU NE SC

GS

/tgiforigctm matrix currentmatrix def

% POLYGON/CLOSED-SPLINE
0 SG
NP
   280 177 M
   280 213 L
   325 213 L
   325 230 L
   370 195 L
   325 160 L
   325 177 L
CP
GS
GR
GS
   S
GR

% TEXT
NP
0 SG
   GS
      1 W
      314 199 M
      GS
        GS
        0
            0
        AD
        GR
      2 DI NE 0 RM
      GR
   GR

% BOX
GS
   50 150 TR
   [1.000 0.000 0.000 0.414 0 0] CO
   50 NE 150 NE TR
0 SG
GS
   10 SM
   GS
      NP 50 150 M 250 150 L 250 350 L 50 350 L CP
      TGSM
      S
   GR
GR
GR

% BOX
GS
   400 150 TR
   [0.414 0.000 0.000 0.414 0 0] CO
   400 NE 150 NE TR
0 SG
GS
   10 SM
   GS
      NP 400 150 M 600 150 L 600 350 L 400 350 L CP
      TGSM
      S
   GR
GR
GR

% POLY/OPEN-SPLINE
0 SG
GS
   [8 8] 0 SD
   NP
      133 150 M
      133 233 L
   TGSM
   1 W
   S
   [] 0 SD
GR

% POLY/OPEN-SPLINE
0 SG
GS
   [8 8] 0 SD
   NP
      216 150 M
      216 233 L
   TGSM
   1 W
   S
   [] 0 SD
GR

% BOX
GS
   500 150 TR
   [0.414 0.000 0.000 0.414 0 0] CO
   500 NE 150 NE TR
0 SG
GS
   10 SM
   GS
      NP 500 150 M 700 150 L 700 350 L 500 350 L CP
      TGSM
      S
   GR
GR
GR

% BOX
0 SG
GS
   10 SM
   GS
      NP 600 150 M 634 150 L 634 233 L 600 233 L CP
      S
   GR
GR

% POLYGON/CLOSED-SPLINE
0 SG
NP
   660 177 M
   660 213 L
   705 213 L
   705 230 L
   750 195 L
   705 160 L
   705 177 L
CP
GS
GR
GS
   S
GR

% TEXT
NP
0 SG
   GS
      1 W
      694 199 M
      GS
        GS
        0
            0
        AD
        GR
      2 DI NE 0 RM
      GR
   GR

% TEXT
NP
0 SG
GS
   778 137 TR
   [3.000 0.000 0.000 3.000 0 0] CO
   778 NE 137 NE TR
GR
   GS
      1 W
      778 137 TR
      [3.000 0.000 0.000 3.000 0 0] CO
      0 31 M
      GS
            0 SG
            /Helvetica FF [34 0 0 -34 0 0] MS
            (...?) SH
      GR
   GR

GR
tgifsavedpage restore
end
showpage

%%Trailer
%MatchingCreationDate: Sun Mar 14 13:13:35 2010
%%DocumentFonts: Helvetica
%%EOF
