%!PS-Adobe-3.0 EPSF-3.0
%%BoundingBox: 26 642 339 808
%%Title: din2square
%%CreationDate: Sun Mar 14 12:51:31 2010
%%Creator: Tgif-4.1.45-QPL written by William Chia-Wei Cheng (bill.cheng@acm.org)
%%ProducedBy: (unknown)
%%Pages: 1
%%DocumentFonts: (atend)
%%EndComments
%%BeginProlog

/tgifdict 51 dict def
tgifdict begin

/TGMAX
 { exch dup 3 1 roll exch dup 3 1 roll gt { pop } { exch pop } ifelse
 } def
/TGMIN
 { exch dup 3 1 roll exch dup 3 1 roll lt { pop } { exch pop } ifelse
 } def
/TGSW { stringwidth pop } def

/bd { bind def } bind def

/GS { gsave } bd
/GR { grestore } bd
/NP { newpath } bd
/CP { closepath } bd
/CHP { charpath } bd
/CT { curveto } bd
/L { lineto } bd
/RL { rlineto } bd
/M { moveto } bd
/RM { rmoveto } bd
/S { stroke } bd
/F { fill } bd
/TR { translate } bd
/RO { rotate } bd
/SC { scale } bd
/MU { mul } bd
/DI { div } bd
/DU { dup } bd
/NE { neg } bd
/AD { add } bd
/SU { sub } bd
/PO { pop } bd
/EX { exch } bd
/CO { concat } bd
/CL { clip } bd
/EC { eoclip } bd
/EF { eofill } bd
/IM { image } bd
/IMM { imagemask } bd
/ARY { array } bd
/SG { setgray } bd
/RG { setrgbcolor } bd
/SD { setdash } bd
/W { setlinewidth } bd
/SM { setmiterlimit } bd
/SLC { setlinecap } bd
/SLJ { setlinejoin } bd
/SH { show } bd
/FF { findfont } bd
/MS { makefont setfont } bd
/AR { arcto 4 {pop} repeat } bd
/CURP { currentpoint } bd
/FLAT { flattenpath strokepath clip newpath } bd
/TGSM { tgiforigctm setmatrix } def
/TGRM { savematrix setmatrix } def

end

%%EndProlog
%%Page: 1 1

%%PageBoundingBox: 26 642 339 808
tgifdict begin
/tgifsavedpage save def

1 SM
1 W

0 SG

72 0 MU 72 11.602 MU TR
72 128 DI 100.000 MU 100 DI DU NE SC

GS

/tgiforigctm matrix currentmatrix def

% BOX
GS
   50 50 TR
   [1.000 0.000 0.000 1.414 0 0] CO
   50 NE 50 NE TR
0 SG
GS
   10 SM
   GS
      NP 50 50 M 250 50 L 250 250 L 50 250 L CP
      TGSM
      S
   GR
GR
GR

% POLY/OPEN-SPLINE
0 SG
GS
   [8 8] 0 SD
   NP
      50 250 M
      250 50 L
   TGSM
   1 W
   S
   [] 0 SD
GR

% POLY/OPEN-SPLINE
0 SG
GS
   [8 8] 0 SD
   NP
      50 250 M
      250 250 L
   TGSM
   1 W
   S
   [] 0 SD
GR

% BOX
0 SG
GS
   10 SM
   GS
      NP 400 50 M 600 50 L 600 250 L 400 250 L CP
      S
   GR
GR

% BOX
0 SG
GS
   10 SM
   GS
      NP 400 260 M 600 260 L 600 340 L 400 340 L CP
      S
   GR
GR

% POLYGON/CLOSED-SPLINE
0 SG
NP
   280 197 M
   280 233 L
   325 233 L
   325 250 L
   370 215 L
   325 180 L
   325 197 L
CP
GS
GR
GS
   S
GR

% TEXT
NP
0 SG
   GS
      1 W
      314 219 M
      GS
        GS
        0
            0
        AD
        GR
      2 DI NE 0 RM
      GR
   GR

GR
tgifsavedpage restore
end
showpage

%%Trailer
%MatchingCreationDate: Sun Mar 14 12:51:31 2010
%%DocumentFonts: 
%%EOF
